{
  "LuaSnip": { "branch": "master", "commit": "ce0a05ab4e2839e1c48d072c5236cce846a387bc" },
  "bufferline.nvim": { "branch": "main", "commit": "0b2fd861eee7595015b6561dade52fb060be10c4" },
  "cmp-buffer": { "branch": "main", "commit": "3022dbc9166796b644a841a02de8dd1cc1d311fa" },
  "cmp-cmdline": { "branch": "main", "commit": "d250c63aa13ead745e3a40f61fdd3470efde3923" },
  "cmp-nvim-lsp": { "branch": "main", "commit": "39e2eda76828d88b773cc27a3f61d2ad782c922d" },
  "cmp-path": { "branch": "main", "commit": "91ff86cd9c29299a64f968ebb45846c485725f23" },
  "cmp-spell": { "branch": "master", "commit": "694a4e50809d6d645c1ea29015dad0c293f019d6" },
  "cmp_luasnip": { "branch": "master", "commit": "05a9ab28b53f71d1aece421ef32fee2cb857a843" },
  "friendly-snippets": { "branch": "main", "commit": "00ebcaa159e817150bd83bfe2d51fa3b3377d5c4" },
  "image.nvim": { "branch": "master", "commit": "61c76515cfc3cdac8123ece9e9761b20c3dc1315" },
  "lazy.nvim": { "branch": "main", "commit": "9a374a0fb4d3ac42dac4a129d4bead7252473c77" },
  "luarocks.nvim": { "branch": "main", "commit": "1db9093915eb16ba2473cfb8d343ace5ee04130a" },
  "magick": { "branch": "master", "commit": "6971fa700c4d392130492a3925344b51c7cc54aa" },
  "mini.animate": { "branch": "main", "commit": "0a35f6db55cfac04a0999abe3465f7b692dc56a7" },
  "noice.nvim": { "branch": "main", "commit": "1df01e495b3ac0e2f5f111eba759691a9c21bb72" },
  "nui.nvim": { "branch": "main", "commit": "61574ce6e60c815b0a0c4b5655b8486ba58089a1" },
  "nvim-cmp": { "branch": "main", "commit": "d818fd0624205b34e14888358037fb6f5dc51234" },
  "nvim-lspconfig": { "branch": "master", "commit": "e26da408cf955afa8e9ddbadd510e84ea8976cd7" },
  "nvim-notify": { "branch": "master", "commit": "d333b6f167900f6d9d42a59005d82919830626bf" },
  "nvim-tree.lua": { "branch": "master", "commit": "f9ff00bc06d7cb70548a3847d7a2a05e928bc988" },
  "nvim-treesitter": { "branch": "master", "commit": "667b9dbbfa2d0071c5677c429ddcf89fb931b53f" },
  "nvim-web-devicons": { "branch": "master", "commit": "e612de3d3a41a6b7be47f51e956dddabcbf419d9" },
  "playground": { "branch": "master", "commit": "ba48c6a62a280eefb7c85725b0915e021a1a0749" },
  "plenary.nvim": { "branch": "master", "commit": "a3e3bc82a3f95c5ed0d7201546d5d2c19b20d683" },
  "telescope.nvim": { "branch": "master", "commit": "79552ef8488cb492e0f9d2bf3b4e808f57515e35" }
}
